{"count": 313, "next": "https://www.udemy.com/api-2.0/courses/?page=2&page_size=5&price=price-free&ratings=5&search=java", "previous": null, "results": [{"_class": "course", "id": 4366186, "title": "Object Oriented Analysis and design(OOAD) with Java", "url": "/course/ooad-with-java/", "is_paid": false, "price": "Free", "price_detail": null, "price_serve_tracking_id": "B6UsoL_cQwuS6wzafqo-EA", "visible_instructors": [{"_class": "user", "title": "Ravi Kumar Singh", "name": "Ravi Kumar", "display_name": "Ravi Kumar Singh", "job_title": "Sr. Software Engineer", "image_50x50": "https://img-c.udemycdn.com/user/50x50/117749436_321c.jpg", "image_100x100": "https://img-c.udemycdn.com/user/100x100/117749436_321c.jpg", "initials": "RS", "url": "/user/ravi-kumar-singh-101/"}], "image_125_H": "https://img-b.udemycdn.com/course/125_H/4366186_98e8_2.jpg?secure=kKhIDoeYxZzw7r2SrZypJg%3D%3D%2C1645085943", "image_240x135": "https://img-b.udemycdn.com/course/240x135/4366186_98e8_2.jpg?secure=6PXj9EIjsPwD7KTI3UDQBQ%3D%3D%2C1645085943", "is_practice_test_course": false, "image_480x270": "https://img-b.udemycdn.com/course/480x270/4366186_98e8_2.jpg?secure=6dq4NKRfmUF6BGTviZkV3Q%3D%3D%2C1645085943", "published_title": "ooad-with-java", "tracking_id": "Cti8SmNdTtO48YMOpHS7bA", "predictive_score": null, "relevancy_score": null, "input_features": null, "lecture_search_result": null, "curriculum_lectures": [], "order_in_results": null, "curriculum_items": [], "headline": "A way to object oriented system design", "instructor_name": null}, {"_class": "course", "id": 3607464, "title": "Panduan Instalasi Java dan NetBeans", "url": "/course/panduan-instalasi-java-dan-netbeans/", "is_paid": false, "price": "Free", "price_detail": null, "price_serve_tracking_id": "L34AMdw5S_SAPJDTs8ctUQ", "visible_instructors": [{"_class": "user", "title": "Silver Guru", "name": "Silver", "display_name": "Silver Guru", "job_title": "Head of Software Development and IT University Lecturer", "image_50x50": "https://img-c.udemycdn.com/user/50x50/117159226_b3d5_2.jpg", "image_100x100": "https://img-c.udemycdn.com/user/100x100/117159226_b3d5_2.jpg", "initials": "SG", "url": "/user/silver-guru/"}], "image_125_H": "https://img-b.udemycdn.com/course/125_H/3607464_1095.jpg?secure=yQgeFQpv2tgk20ox4HxroQ%3D%3D%2C1645085943", "image_240x135": "https://img-b.udemycdn.com/course/240x135/3607464_1095.jpg?secure=2Vu2D9Tr3SorH_TCmPH1oQ%3D%3D%2C1645085943", "is_practice_test_course": false, "image_480x270": "https://img-b.udemycdn.com/course/480x270/3607464_1095.jpg?secure=Ig65iD9xYFOy7Ckq_YKE8A%3D%3D%2C1645085943", "published_title": "panduan-instalasi-java-dan-netbeans", "tracking_id": "rsY88PIGQQqcYBqjza8rOQ", "predictive_score": null, "relevancy_score": null, "input_features": null, "lecture_search_result": null, "curriculum_lectures": [], "order_in_results": null, "curriculum_items": [], "headline": "Panduan instalasi langkah demi langkah untuk pemula (beginner, orang awam, dan semua kalangan) - Bahasa Indonesia", "instructor_name": null}, {"_class": "course", "id": 2117552, "title": "Java SE - Polimorfismo", "url": "/course/java-se-polimorfismo/", "is_paid": false, "price": "Free", "price_detail": null, "price_serve_tracking_id": "94CN-RlISmyxmpOXoNyysg", "visible_instructors": [{"_class": "user", "title": "Fernando Franzini", "name": "Fernando", "display_name": "Fernando Franzini", "job_title": "Enterprise Java Architect", "image_50x50": "https://img-c.udemycdn.com/user/50x50/42652210_2f51.jpg", "image_100x100": "https://img-c.udemycdn.com/user/100x100/42652210_2f51.jpg", "initials": "FF", "url": "/user/fernando-franzini/"}], "image_125_H": "https://img-b.udemycdn.com/course/125_H/2117552_4b2c.jpg?secure=Rgk0FQfNlemPr4MC2-b9fg%3D%3D%2C1645085943", "image_240x135": "https://img-b.udemycdn.com/course/240x135/2117552_4b2c.jpg?secure=ivoxaMPGrBDMPcfFerrbTA%3D%3D%2C1645085943", "is_practice_test_course": false, "image_480x270": "https://img-b.udemycdn.com/course/480x270/2117552_4b2c.jpg?secure=KboglqfhF0kGcJq08nI3AQ%3D%3D%2C1645085943", "published_title": "java-se-polimorfismo", "tracking_id": "ddu3euvQRmSF3GkTkWx5_g", "predictive_score": null, "relevancy_score": null, "input_features": null, "lecture_search_result": null, "curriculum_lectures": [], "order_in_results": null, "curriculum_items": [], "headline": "Polimorfismo - Projeto e Design Orientados a Objetos", "instructor_name": null}, {"_class": "course", "id": 3938838, "title": "Pengenalan Dasar Java - Edition 2", "url": "/course/pengenalan-dasar-java-edition-2/", "is_paid": false, "price": "Free", "price_detail": null, "price_serve_tracking_id": "z4izbhHnQ0KIcJU-cvBVdw", "visible_instructors": [{"_class": "user", "title": "Silver Guru", "name": "Silver", "display_name": "Silver Guru", "job_title": "Head of Software Development and IT University Lecturer", "image_50x50": "https://img-c.udemycdn.com/user/50x50/117159226_b3d5_2.jpg", "image_100x100": "https://img-c.udemycdn.com/user/100x100/117159226_b3d5_2.jpg", "initials": "SG", "url": "/user/silver-guru/"}], "image_125_H": "https://img-b.udemycdn.com/course/125_H/3938838_062e_2.jpg?secure=ZWUEmTj1Ne_JbBYoNxm6DQ%3D%3D%2C1645085943", "image_240x135": "https://img-b.udemycdn.com/course/240x135/3938838_062e_2.jpg?secure=2ew4rD58pbb0VcSrj1kxsQ%3D%3D%2C1645085943", "is_practice_test_course": false, "image_480x270": "https://img-b.udemycdn.com/course/480x270/3938838_062e_2.jpg?secure=EaPPC_RhkNN74r2Hlem_Gg%3D%3D%2C1645085943", "published_title": "pengenalan-dasar-java-edition-2", "tracking_id": "3XrjcjfPTxuM2sqXWaHr6w", "predictive_score": null, "relevancy_score": null, "input_features": null, "lecture_search_result": null, "curriculum_lectures": [], "order_in_results": null, "curriculum_items": [], "headline": "Belajar Java langkah demi langkah untuk pemula (beginner level dan orang awam) - Edition 2", "instructor_name": null}, {"_class": "course", "id": 4138726, "title": "ADVANCE JAVA COURSE IN \u0a97\u0ac1\u0a9c\u0ab0\u0abe\u0aa4\u0ac0 : FOR BEGINNERS", "url": "/course/advance-java-course/", "is_paid": false, "price": "Free", "price_detail": null, "price_serve_tracking_id": "EkzJnVzRQfOI6WQDzpksXw", "visible_instructors": [{"_class": "user", "title": "Vijay prajapati", "name": "Vijay", "display_name": "Vijay prajapati", "job_title": "Multy Language's Developer and Expert Trainer", "image_50x50": "https://img-c.udemycdn.com/user/50x50/118766492_a172.jpg", "image_100x100": "https://img-c.udemycdn.com/user/100x100/118766492_a172.jpg", "initials": "VP", "url": "/user/vijay-prajapati-36/"}], "image_125_H": "https://img-b.udemycdn.com/course/125_H/4138726_6b78.jpg?secure=vF6mNnXXuPJRQT4wFPHtBA%3D%3D%2C1645085943", "image_240x135": "https://img-b.udemycdn.com/course/240x135/4138726_6b78.jpg?secure=yYYLgtiyNXC-etMh-cmncg%3D%3D%2C1645085943", "is_practice_test_course": false, "image_480x270": "https://img-b.udemycdn.com/course/480x270/4138726_6b78.jpg?secure=oOw9eKnS5_OoRxKVfuKDxA%3D%3D%2C1645085943", "published_title": "advance-java-course", "tracking_id": "fSwxDYe5SdiDPCmhwMNYpw", "predictive_score": null, "relevancy_score": null, "input_features": null, "lecture_search_result": null, "curriculum_lectures": [], "order_in_results": null, "curriculum_items": [], "headline": "Learn Advance Java  in \u0a97\u0ac1\u0a9c\u0ab0\u0abe\u0aa4\u0ac0 language with practical examples.", "instructor_name": null}], "aggregations": [{"id": "price", "title": "Price", "options": [{"key": "price", "title": "Paid", "count": 620, "value": "price-paid"}, {"key": "price", "title": "Free", "count": 313, "value": "price-free"}]}, {"id": "instructional_level", "title": "Level", "options": [{"key": "instructional_level", "title": "Beginner", "count": 148, "value": "beginner"}, {"key": "instructional_level", "title": "All Levels", "count": 120, "value": "all"}, {"key": "instructional_level", "title": "Intermediate", "count": 42, "value": "intermediate"}, {"key": "instructional_level", "title": "Expert", "count": 3, "value": "expert"}]}, {"id": "features", "title": "Features", "options": [{"key": "has_closed_caption", "title": "Captions", "count": 185, "value": "true"}, {"key": "has_simple_quiz", "title": "Quizzes", "count": 38, "value": "true"}]}, {"id": "language", "title": "Language", "options": [{"key": "language", "title": "English", "count": 195, "value": "en"}, {"key": "language", "title": "Espa\u00f1ol", "count": 18, "value": "es"}, {"key": "language", "title": "\u0627\u0644\u0639\u0631\u0628\u064a\u0629", "count": 10, "value": "ar"}, {"key": "language", "title": "\u0420\u0443\u0441\u0441\u043a\u0438\u0439", "count": 10, "value": "ru"}, {"key": "language", "title": "\u65e5\u672c\u8a9e", "count": 8, "value": "ja"}, {"key": "language", "title": "Deutsch", "count": 7, "value": "de"}, {"key": "language", "title": "Bahasa Indonesia", "count": 7, "value": "id"}, {"key": "language", "title": "\u4e2d\u6587", "count": 7, "value": "zh"}, {"key": "language", "title": "\u0939\u093f\u0928\u094d\u0926\u0940", "count": 5, "value": "hi"}, {"key": "language", "title": "\ud55c\uad6d\uc5b4", "count": 5, "value": "ko"}, {"key": "language", "title": "\u0ba4\u0bae\u0bbf\u0bb4\u0bcd", "count": 5, "value": "ta"}, {"key": "language", "title": "Fran\u00e7ais", "count": 4, "value": "fr"}, {"key": "language", "title": "Portugu\u00eas", "count": 4, "value": "pt"}, {"key": "language", "title": "Rom\u00e2n\u0103", "count": 4, "value": "ro"}, {"key": "language", "title": "\u0a97\u0ac1\u0a9c\u0ab0\u0abe\u0aa4\u0ac0", "count": 3, "value": "gu"}, {"key": "language", "title": "\u200f\u05e2\u05d1\u05e8\u05d9\u05ea\u200f", "count": 3, "value": "he"}, {"key": "language", "title": "Polski", "count": 3, "value": "pl"}, {"key": "language", "title": "Bangla", "count": 2, "value": "bn"}, {"key": "language", "title": "\u092e\u0930\u093e\u0920\u0940", "count": 2, "value": "mr"}, {"key": "language", "title": "Shqip", "count": 2, "value": "sq"}, {"key": "language", "title": "Ti\u1ebfng Vi\u1ec7t", "count": 2, "value": "vi"}, {"key": "language", "title": "\u010ce\u0161tina", "count": 1, "value": "cs"}, {"key": "language", "title": "Magyar", "count": 1, "value": "hu"}, {"key": "language", "title": "Kanna\u1e0da", "count": 1, "value": "kn"}, {"key": "language", "title": "Nederlands", "count": 1, "value": "nl"}, {"key": "language", "title": "Telugu", "count": 1, "value": "te"}, {"key": "language", "title": "\u0e20\u0e32\u0e29\u0e32\u0e44\u0e17\u0e22", "count": 1, "value": "th"}, {"key": "language", "title": "T\u00fcrk\u00e7e", "count": 1, "value": "tr"}]}, {"id": "ratings", "title": "Ratings", "options": [{"key": "ratings", "title": "4.5 & up", "count": 2412, "value": "4.5"}, {"key": "ratings", "title": "4.0 & up", "count": 4997, "value": "4.0"}, {"key": "ratings", "title": "3.5 & up", "count": 5857, "value": "3.5"}, {"key": "ratings", "title": "3.0 & up", "count": 6113, "value": "3.0"}]}, {"id": "duration", "title": "Duration", "options": [{"key": "duration", "title": "0-1 Hour", "count": 153, "value": "extraShort"}, {"key": "duration", "title": "1-3 Hours", "count": 159, "value": "short"}, {"key": "duration", "title": "3-6 Hours", "count": 1, "value": "medium"}, {"key": "duration", "title": "6-17 Hours", "count": 0, "value": "long"}, {"key": "duration", "title": "17+ Hours", "count": 0, "value": "extraLong"}]}], "search_tracking_id": "91q-d1zNRaK95OjUrkSgNA"}