"{\"aggregations\": [{\"id\": \"price\", \"options\": [{\"count\": 10000, \"key\": \"price\", \"title\": \"Paid\", \"value\": \"price-paid\"}, {\"count\": 10000, \"key\": \"price\", \"title\": \"Free\", \"value\": \"price-free\"}], \"title\": \"Price\"}, {\"id\": \"instructional_level\", \"options\": [{\"count\": 10000, \"key\": \"instructional_level\", \"title\": \"All Levels\", \"value\": \"all\"}, {\"count\": 10000, \"key\": \"instructional_level\", \"title\": \"Beginner\", \"value\": \"beginner\"}, {\"count\": 10000, \"key\": \"instructional_level\", \"title\": \"Intermediate\", \"value\": \"intermediate\"}, {\"count\": 3967, \"key\": \"instructional_level\", \"title\": \"Expert\", \"value\": \"expert\"}], \"title\": \"Level\"}, {\"id\": \"features\", \"options\": [{\"count\": 10000, \"key\": \"has_closed_caption\", \"title\": \"Captions\", \"value\": \"true\"}, {\"count\": 10000, \"key\": \"has_simple_quiz\", \"title\": \"Quizzes\", \"value\": \"true\"}, {\"count\": 809, \"key\": \"has_coding_exercises\", \"title\": \"Coding Exercises\", \"value\": \"true\"}], \"title\": \"Features\"}, {\"id\": \"language\", \"options\": [{\"count\": 10000, \"key\": \"language\", \"title\": \"English\", \"value\": \"en\"}, {\"count\": 10000, \"key\": \"language\", \"title\": \"Portugu\\u00eas\", \"value\": \"pt\"}, {\"count\": 10000, \"key\": \"language\", \"title\": \"Espa\\u00f1ol\", \"value\": \"es\"}, {\"count\": 7108, \"key\": \"language\", \"title\": \"T\\u00fcrk\\u00e7e\", \"value\": \"tr\"}, {\"count\": 5879, \"key\": \"language\", \"title\": \"\\u65e5\\u672c\\u8a9e\", \"value\": \"ja\"}, {\"count\": 5460, \"key\": \"language\", \"title\": \"Deutsch\", \"value\": \"de\"}, {\"count\": 4886, \"key\": \"language\", \"title\": \"Fran\\u00e7ais\", \"value\": \"fr\"}, {\"count\": 4295, \"key\": \"language\", \"title\": \"\\u0627\\u0644\\u0639\\u0631\\u0628\\u064a\\u0629\", \"value\": \"ar\"}, {\"count\": 3303, \"key\": \"language\", \"title\": \"Italiano\", \"value\": \"it\"}, {\"count\": 2529, \"key\": \"language\", \"title\": \"\\u0420\\u0443\\u0441\\u0441\\u043a\\u0438\\u0439\", \"value\": \"ru\"}, {\"count\": 1810, \"key\": \"language\", \"title\": \"\\u4e2d\\u6587\", \"value\": \"zh\"}, {\"count\": 1426, \"key\": \"language\", \"title\": \"\\u0939\\u093f\\u0928\\u094d\\u0926\\u0940\", \"value\": \"hi\"}, {\"count\": 1383, \"key\": \"language\", \"title\": \"Polski\", \"value\": \"pl\"}, {\"count\": 1253, \"key\": \"language\", \"title\": \"\\ud55c\\uad6d\\uc5b4\", \"value\": \"ko\"}, {\"count\": 1249, \"key\": \"language\", \"title\": \"Bahasa Indonesia\", \"value\": \"id\"}, {\"count\": 424, \"key\": \"language\", \"title\": \"\\u0627\\u0631\\u062f\\u0648\", \"value\": \"ur\"}, {\"count\": 270, \"key\": \"language\", \"title\": \"Rom\\u00e2n\\u0103\", \"value\": \"ro\"}, {\"count\": 269, \"key\": \"language\", \"title\": \"\\u0e20\\u0e32\\u0e29\\u0e32\\u0e44\\u0e17\\u0e22\", \"value\": \"th\"}, {\"count\": 238, \"key\": \"language\", \"title\": \"\\u0ba4\\u0bae\\u0bbf\\u0bb4\\u0bcd\", \"value\": \"ta\"}, {\"count\": 218, \"key\": \"language\", \"title\": \"Nederlands\", \"value\": \"nl\"}, {\"count\": 179, \"key\": \"language\", \"title\": \"\\u200f\\u05e2\\u05d1\\u05e8\\u05d9\\u05ea\\u200f\", \"value\": \"he\"}, {\"count\": 152, \"key\": \"language\", \"title\": \"Ti\\u1ebfng Vi\\u1ec7t\", \"value\": \"vi\"}, {\"count\": 116, \"key\": \"language\", \"title\": \"Magyar\", \"value\": \"hu\"}, {\"count\": 100, \"key\": \"language\", \"title\": \"\\u0395\\u03bb\\u03bb\\u03b7\\u03bd\\u03b9\\u03ba\\u03ac\", \"value\": \"el\"}, {\"count\": 79, \"key\": \"language\", \"title\": \"Telugu\", \"value\": \"te\"}, {\"count\": 78, \"key\": \"language\", \"title\": \"Bangla\", \"value\": \"bn\"}, {\"count\": 65, \"key\": \"language\", \"title\": \"Az\\u0259rbaycan dili\", \"value\": \"az\"}, {\"count\": 57, \"key\": \"language\", \"title\": \"\\u092e\\u0930\\u093e\\u0920\\u0940\", \"value\": \"mr\"}, {\"count\": 50, \"key\": \"language\", \"title\": \"Malay\\u0101\\u1e37am\", \"value\": \"ml\"}, {\"count\": 40, \"key\": \"language\", \"title\": \"\\u0641\\u0627\\u0631\\u0633\\u06cc\", \"value\": \"fa\"}, {\"count\": 29, \"key\": \"language\", \"title\": \"Afrikaans\", \"value\": \"af\"}, {\"count\": 29, \"key\": \"language\", \"title\": \"Hrvatski\", \"value\": \"hr\"}, {\"count\": 26, \"key\": \"language\", \"title\": \"\\u0423\\u043a\\u0440\\u0430\\u0457\\u043d\\u0441\\u044c\\u043a\\u0430\", \"value\": \"uk\"}, {\"count\": 19, \"key\": \"language\", \"title\": \"\\u1019\\u103c\\u1014\\u103a\\u1019\\u102c\\u1018\\u102c\\u101e\\u102c\", \"value\": \"my\"}, {\"count\": 19, \"key\": \"language\", \"title\": \"\\u0421\\u0440\\u043f\\u0441\\u043a\\u0438\", \"value\": \"sr\"}, {\"count\": 18, \"key\": \"language\", \"title\": \"\\u0411\\u044a\\u043b\\u0433\\u0430\\u0440\\u0441\\u043a\\u0438\", \"value\": \"bg\"}, {\"count\": 18, \"key\": \"language\", \"title\": \"\\u0a97\\u0ac1\\u0a9c\\u0ab0\\u0abe\\u0aa4\\u0ac0\", \"value\": \"gu\"}, {\"count\": 18, \"key\": \"language\", \"title\": \"Svenska\", \"value\": \"sv\"}, {\"count\": 17, \"key\": \"language\", \"title\": \"\\u010ce\\u0161tina\", \"value\": \"cs\"}, {\"count\": 15, \"key\": \"language\", \"title\": \"Norsk\", \"value\": \"nb\"}, {\"count\": 13, \"key\": \"language\", \"title\": \"Suomi\", \"value\": \"fi\"}, {\"count\": 13, \"key\": \"language\", \"title\": \"Kanna\\u1e0da\", \"value\": \"kn\"}, {\"count\": 12, \"key\": \"language\", \"title\": \"Filipino\", \"value\": \"tl\"}, {\"count\": 11, \"key\": \"language\", \"title\": \"Bahasa Melayu\", \"value\": \"ms\"}, {\"count\": 10, \"key\": \"language\", \"title\": \"Eesti\", \"value\": \"et\"}, {\"count\": 10, \"key\": \"language\", \"title\": \"\\u0928\\u0947\\u092a\\u093e\\u0932\\u0940\", \"value\": \"ne\"}, {\"count\": 9, \"key\": \"language\", \"title\": \"Dansk\", \"value\": \"da\"}, {\"count\": 9, \"key\": \"language\", \"title\": \"\\u067e\\u069a\\u062a\\u0648\", \"value\": \"ps\"}, {\"count\": 9, \"key\": \"language\", \"title\": \"Shqip\", \"value\": \"sq\"}, {\"count\": 9, \"key\": \"language\", \"title\": \"O'zbek\", \"value\": \"uz\"}, {\"count\": 8, \"key\": \"language\", \"title\": \"Catal\\u00e0\", \"value\": \"ca\"}, {\"count\": 8, \"key\": \"language\", \"title\": \"Latvie\\u0161u\", \"value\": \"lv\"}, {\"count\": 8, \"key\": \"language\", \"title\": \"Soomaaliga\", \"value\": \"so\"}, {\"count\": 7, \"key\": \"language\", \"title\": \"\\u10e5\\u10d0\\u10e0\\u10d7\\u10e3\\u10da\\u10d8\", \"value\": \"ka\"}, {\"count\": 6, \"key\": \"language\", \"title\": \"Gaeilge\", \"value\": \"ga\"}, {\"count\": 6, \"key\": \"language\", \"title\": \"\\u049a\\u0430\\u0437\\u0430\\u049b\\u0448\\u0430\", \"value\": \"kk\"}, {\"count\": 5, \"key\": \"language\", \"title\": \"Lietuvi\\u0173\", \"value\": \"lt\"}, {\"count\": 5, \"key\": \"language\", \"title\": \"\\u0a2a\\u0a70\\u0a1c\\u0a3e\\u0a2c\\u0a40\", \"value\": \"pa\"}, {\"count\": 5, \"key\": \"language\", \"title\": \"Kiswahili\", \"value\": \"sw\"}, {\"count\": 3, \"key\": \"language\", \"title\": \"\\u041c\\u0430\\u043a\\u0435\\u0434\\u043e\\u043d\\u0441\\u043a\\u0438\", \"value\": \"mk\"}, {\"count\": 3, \"key\": \"language\", \"title\": \"\\u041c\\u043e\\u043d\\u0433\\u043e\\u043b\", \"value\": \"mn\"}, {\"count\": 2, \"key\": \"language\", \"title\": \"Ava\\u00f1e'\\u1ebd\", \"value\": \"gn\"}, {\"count\": 2, \"key\": \"language\", \"title\": \"\\u0540\\u0561\\u0575\\u0565\\u0580\\u0565\\u0576\", \"value\": \"hy\"}, {\"count\": 2, \"key\": \"language\", \"title\": \"Khmer\", \"value\": \"km\"}, {\"count\": 2, \"key\": \"language\", \"title\": \"Kurd\\u00ee\", \"value\": \"ku\"}, {\"count\": 2, \"key\": \"language\", \"title\": \"Sloven\\u010dina\", \"value\": \"sk\"}, {\"count\": 2, \"key\": \"language\", \"title\": \"Sloven\\u0161\\u010dina\", \"value\": \"sl\"}, {\"count\": 1, \"key\": \"language\", \"title\": \"Aymar aru\", \"value\": \"ay\"}, {\"count\": 1, \"key\": \"language\", \"title\": \"Cymraeg\", \"value\": \"cy\"}, {\"count\": 1, \"key\": \"language\", \"title\": \"Euskara\", \"value\": \"eu\"}, {\"count\": 1, \"key\": \"language\", \"title\": \"F\\u00f8royskt\", \"value\": \"fo\"}, {\"count\": 1, \"key\": \"language\", \"title\": \"Frysk\", \"value\": \"fy\"}, {\"count\": 1, \"key\": \"language\", \"title\": \"Ayisyen\", \"value\": \"ht\"}, {\"count\": 1, \"key\": \"language\", \"title\": \"Qhichwa\", \"value\": \"qu\"}, {\"count\": 1, \"key\": \"language\", \"title\": \"\\u0442\\u043e\\u04b7\\u0438\\u043a\\u04e3, \\u062a\\u0627\\u062c\\u06cc\\u06a9\\u06cc\\u200e, tojik\\u012b\", \"value\": \"tg\"}, {\"count\": 1, \"key\": \"language\", \"title\": \"\\u0442\\u0430\\u0442\\u0430\\u0440\\u0447\\u0430 / Tatar\\u00e7a / \\u062a\\u0627\\u062a\\u0627\\u0631\\u0686\\u0627\", \"value\": \"tt\"}, {\"count\": 1, \"key\": \"language\", \"title\": \"isiXhosa\", \"value\": \"xh\"}, {\"count\": 1, \"key\": \"language\", \"title\": \"isiZulu\", \"value\": \"zu\"}], \"title\": \"Language\"}, {\"id\": \"ratings\", \"options\": [{\"count\": 10000, \"key\": \"ratings\", \"title\": \"4.5 & up\", \"value\": \"4.5\"}, {\"count\": 10000, \"key\": \"ratings\", \"title\": \"4.0 & up\", \"value\": \"4.0\"}, {\"count\": 10000, \"key\": \"ratings\", \"title\": \"3.5 & up\", \"value\": \"3.5\"}, {\"count\": 10000, \"key\": \"ratings\", \"title\": \"3.0 & up\", \"value\": \"3.0\"}], \"title\": \"Ratings\"}, {\"id\": \"duration\", \"options\": [{\"count\": 10000, \"key\": \"duration\", \"title\": \"0-1 Hour\", \"value\": \"extraShort\"}, {\"count\": 10000, \"key\": \"duration\", \"title\": \"1-3 Hours\", \"value\": \"short\"}, {\"count\": 10000, \"key\": \"duration\", \"title\": \"3-6 Hours\", \"value\": \"medium\"}, {\"count\": 10000, \"key\": \"duration\", \"title\": \"6-17 Hours\", \"value\": \"long\"}, {\"count\": 7970, \"key\": \"duration\", \"title\": \"17+ Hours\", \"value\": \"extraLong\"}], \"title\": \"Duration\"}], \"count\": 10000, \"next\": \"https://www.udemy.com/api-2.0/courses/?page=2&page_size=12\", \"previous\": null, \"results\": [{\"_class\": \"course\", \"curriculum_items\": [], \"curriculum_lectures\": [], \"headline\": \"Learn web design in 1 hour with 25+ simple-to-use rules and guidelines \\u2014 tons of amazing web design resources included!\", \"id\": 473160, \"image_125_H\": \"https://img-c.udemycdn.com/course/125_H/473160_d929_3.jpg\", \"image_240x135\": \"https://img-c.udemycdn.com/course/240x135/473160_d929_3.jpg\", \"image_480x270\": \"https://img-c.udemycdn.com/course/480x270/473160_d929_3.jpg\", \"input_features\": null, \"instructor_name\": null, \"is_paid\": false, \"is_practice_test_course\": false, \"lecture_search_result\": null, \"order_in_results\": null, \"predictive_score\": null, \"price\": \"Free\", \"price_detail\": null, \"price_serve_tracking_id\": \"yseBD4KOSf2sO8JlP0mMtg\", \"published_title\": \"web-design-secrets\", \"relevancy_score\": null, \"title\": \"Web Design for Web Developers: Build Beautiful Websites!\", \"tracking_id\": \"psA0I96zQCeCxFyKN82nEA\", \"url\": \"/course/web-design-secrets/\", \"visible_instructors\": [{\"_class\": \"user\", \"display_name\": \"Jonas Schmedtmann\", \"image_100x100\": \"https://img-b.udemycdn.com/user/100x100/7799204_2091_5.jpg?secure=cxUpA6YFShBcYXlsDkbB2A%3D%3D%2C1644963813\", \"image_50x50\": \"https://img-b.udemycdn.com/user/50x50/7799204_2091_5.jpg?secure=7IWTc7ZW1SjWrXQJ0oyJqg%3D%3D%2C1644963813\", \"initials\": \"JS\", \"job_title\": \"Web Developer, Designer, and Teacher\", \"name\": \"Jonas\", \"title\": \"Jonas Schmedtmann\", \"url\": \"/user/jonasschmedtmann/\"}]}, {\"_class\": \"course\", \"curriculum_items\": [], \"curriculum_lectures\": [], \"headline\": \"Learn to program using the Java programming language\", \"id\": 24823, \"image_125_H\": \"https://img-c.udemycdn.com/course/125_H/24823_963e_14.jpg\", \"image_240x135\": \"https://img-c.udemycdn.com/course/240x135/24823_963e_14.jpg\", \"image_480x270\": \"https://img-c.udemycdn.com/course/480x270/24823_963e_14.jpg\", \"input_features\": null, \"instructor_name\": null, \"is_paid\": false, \"is_practice_test_course\": false, \"lecture_search_result\": null, \"order_in_results\": null, \"predictive_score\": null, \"price\": \"Free\", \"price_detail\": null, \"price_serve_tracking_id\": \"6Y9sweJ8QcGDyAvEXk8-YA\", \"published_title\": \"java-tutorial\", \"relevancy_score\": null, \"title\": \"Java Tutorial for Complete Beginners\", \"tracking_id\": \"Oy16tkJMTx-TFCcfvtQiWg\", \"url\": \"/course/java-tutorial/\", \"visible_instructors\": [{\"_class\": \"user\", \"display_name\": \"John Purcell\", \"image_100x100\": \"https://img-c.udemycdn.com/user/100x100/219513_a344_5.jpg\", \"image_50x50\": \"https://img-c.udemycdn.com/user/50x50/219513_a344_5.jpg\", \"initials\": \"JP\", \"job_title\": \"Software Development Trainer\", \"name\": \"John\", \"title\": \"John Purcell\", \"url\": \"/user/johnpurcell/\"}]}, {\"_class\": \"course\", \"curriculum_items\": [], \"curriculum_lectures\": [], \"headline\": \"A Quick and Easy Intro into Python Programming\", \"id\": 433798, \"image_125_H\": \"https://img-c.udemycdn.com/course/125_H/433798_1de9_4.jpg\", \"image_240x135\": \"https://img-c.udemycdn.com/course/240x135/433798_1de9_4.jpg\", \"image_480x270\": \"https://img-c.udemycdn.com/course/480x270/433798_1de9_4.jpg\", \"input_features\": null, \"instructor_name\": null, \"is_paid\": false, \"is_practice_test_course\": false, \"lecture_search_result\": null, \"order_in_results\": null, \"predictive_score\": null, \"price\": \"Free\", \"price_detail\": null, \"price_serve_tracking_id\": \"ipWgHGq3TZSIhZMYBzQSdA\", \"published_title\": \"pythonforbeginnersintro\", \"relevancy_score\": null, \"title\": \"Introduction To Python Programming\", \"tracking_id\": \"VmImSyEIRyaDu3yoZGoPQA\", \"url\": \"/course/pythonforbeginnersintro/\", \"visible_instructors\": [{\"_class\": \"user\", \"display_name\": \"Avinash Jain\", \"image_100x100\": \"https://img-c.udemycdn.com/user/100x100/10260436_946b_6.jpg\", \"image_50x50\": \"https://img-c.udemycdn.com/user/50x50/10260436_946b_6.jpg\", \"initials\": \"AJ\", \"job_title\": \"CEO of TheCodex.me - Teaching 500,000+ Students how to code\", \"name\": \"Avinash\", \"title\": \"Avinash Jain\", \"url\": \"/user/avinashjain5/\"}, {\"_class\": \"user\", \"display_name\": \"The Codex\", \"image_100x100\": \"https://img-c.udemycdn.com/user/100x100/52310762_220a.jpg\", \"image_50x50\": \"https://img-c.udemycdn.com/user/50x50/52310762_220a.jpg\", \"initials\": \"TC\", \"job_title\": \"Teaching Python through Projects\", \"name\": \"The\", \"title\": \"The Codex\", \"url\": \"/user/thecodex/\"}]}, {\"_class\": \"course\", \"curriculum_items\": [], \"curriculum_lectures\": [], \"headline\": \"Learn the basics of Microsoft Excel and become an effective user\", \"id\": 53600, \"image_125_H\": \"https://img-c.udemycdn.com/course/125_H/53600_553c_4.jpg\", \"image_240x135\": \"https://img-c.udemycdn.com/course/240x135/53600_553c_4.jpg\", \"image_480x270\": \"https://img-c.udemycdn.com/course/480x270/53600_553c_4.jpg\", \"input_features\": null, \"instructor_name\": null, \"is_paid\": false, \"is_practice_test_course\": false, \"lecture_search_result\": null, \"order_in_results\": null, \"predictive_score\": null, \"price\": \"Free\", \"price_detail\": null, \"price_serve_tracking_id\": \"nuhNEeSJRJCue1TZFOoI2A\", \"published_title\": \"useful-excel-for-beginners\", \"relevancy_score\": null, \"title\": \"Useful Excel for Beginners\", \"tracking_id\": \"jieDQdgySQScdH6QauLccg\", \"url\": \"/course/useful-excel-for-beginners/\", \"visible_instructors\": [{\"_class\": \"user\", \"display_name\": \"Dinesh Natarajan Mohan\", \"image_100x100\": \"https://img-c.udemycdn.com/user/100x100/766769_faf7_6.jpg\", \"image_50x50\": \"https://img-c.udemycdn.com/user/50x50/766769_faf7_6.jpg\", \"initials\": \"DN\", \"job_title\": \"Sharing simple but effective solutions\", \"name\": \"Dinesh\", \"title\": \"Dinesh Natarajan Mohan\", \"url\": \"/user/indzara/\"}]}, {\"_class\": \"course\", \"curriculum_items\": [], \"curriculum_lectures\": [], \"headline\": \"Numpy, Scipy, Pandas, and Matplotlib: prep for deep learning, machine learning, and artificial intelligence\", \"id\": 3060786, \"image_125_H\": \"https://img-c.udemycdn.com/course/125_H/3060786_438f_2.jpg\", \"image_240x135\": \"https://img-c.udemycdn.com/course/240x135/3060786_438f_2.jpg\", \"image_480x270\": \"https://img-c.udemycdn.com/course/480x270/3060786_438f_2.jpg\", \"input_features\": null, \"instructor_name\": null, \"is_paid\": false, \"is_practice_test_course\": false, \"lecture_search_result\": null, \"order_in_results\": null, \"predictive_score\": null, \"price\": \"Free\", \"price_detail\": null, \"price_serve_tracking_id\": \"gnm8J6ASTEqYH9UysAISZA\", \"published_title\": \"numpy-python\", \"relevancy_score\": null, \"title\": \"Deep Learning Prerequisites: The Numpy Stack in Python V2\", \"tracking_id\": \"6K6MFMpBTCiJlInTG7tohA\", \"url\": \"/course/numpy-python/\", \"visible_instructors\": [{\"_class\": \"user\", \"display_name\": \"Lazy Programmer Team\", \"image_100x100\": \"https://img-c.udemycdn.com/user/100x100/75391750_5441.jpg\", \"image_50x50\": \"https://img-c.udemycdn.com/user/50x50/75391750_5441.jpg\", \"initials\": \"LT\", \"job_title\": \"Artificial Intelligence and Machine Learning Engineer\", \"name\": \"Lazy Programmer\", \"title\": \"Lazy Programmer Team\", \"url\": \"/user/lazy-programmer-team/\"}, {\"_class\": \"user\", \"display_name\": \"Lazy Programmer Inc.\", \"image_100x100\": \"https://img-c.udemycdn.com/user/100x100/14266988_a969_9.jpg\", \"image_50x50\": \"https://img-c.udemycdn.com/user/50x50/14266988_a969_9.jpg\", \"initials\": \"LI\", \"job_title\": \"Artificial intelligence and machine learning engineer\", \"name\": \"Lazy Programmer\", \"title\": \"Lazy Programmer Inc.\", \"url\": \"/user/lazy-programmer/\"}]}, {\"_class\": \"course\", \"curriculum_items\": [], \"curriculum_lectures\": [], \"headline\": \"How to program in the popular (and tricky!) C++ programming language, for complete beginners.\", \"id\": 247190, \"image_125_H\": \"https://img-c.udemycdn.com/course/125_H/247190_5cb0_2.jpg\", \"image_240x135\": \"https://img-c.udemycdn.com/course/240x135/247190_5cb0_2.jpg\", \"image_480x270\": \"https://img-c.udemycdn.com/course/480x270/247190_5cb0_2.jpg\", \"input_features\": null, \"instructor_name\": null, \"is_paid\": false, \"is_practice_test_course\": false, \"lecture_search_result\": null, \"order_in_results\": null, \"predictive_score\": null, \"price\": \"Free\", \"price_detail\": null, \"price_serve_tracking_id\": \"7j1XZnsCREar0xxaG6HuKg\", \"published_title\": \"free-learn-c-tutorial-beginners\", \"relevancy_score\": null, \"title\": \"C++ Tutorial for Complete Beginners\", \"tracking_id\": \"DIg-DS4aR7CIjowVunut2Q\", \"url\": \"/course/free-learn-c-tutorial-beginners/\", \"visible_instructors\": [{\"_class\": \"user\", \"display_name\": \"John Purcell\", \"image_100x100\": \"https://img-c.udemycdn.com/user/100x100/219513_a344_5.jpg\", \"image_50x50\": \"https://img-c.udemycdn.com/user/50x50/219513_a344_5.jpg\", \"initials\": \"JP\", \"job_title\": \"Software Development Trainer\", \"name\": \"John\", \"title\": \"John Purcell\", \"url\": \"/user/johnpurcell/\"}]}, {\"_class\": \"course\", \"curriculum_items\": [], \"curriculum_lectures\": [], \"headline\": \"A step by step introduction to the concept of Databases and Introduction to SQL Querying.\", \"id\": 552672, \"image_125_H\": \"https://img-c.udemycdn.com/course/125_H/552672_e2b6_5.jpg\", \"image_240x135\": \"https://img-c.udemycdn.com/course/240x135/552672_e2b6_5.jpg\", \"image_480x270\": \"https://img-c.udemycdn.com/course/480x270/552672_e2b6_5.jpg\", \"input_features\": null, \"instructor_name\": null, \"is_paid\": false, \"is_practice_test_course\": false, \"lecture_search_result\": null, \"order_in_results\": null, \"predictive_score\": null, \"price\": \"Free\", \"price_detail\": null, \"price_serve_tracking_id\": \"EkeIMxQgQZW_v5rQmkWkgQ\", \"published_title\": \"introduction-to-databases-and-sql-querying\", \"relevancy_score\": null, \"title\": \"Introduction to Databases and SQL Querying\", \"tracking_id\": \"zn9FnK1aQqCEEivjdMWYTw\", \"url\": \"/course/introduction-to-databases-and-sql-querying/\", \"visible_instructors\": [{\"_class\": \"user\", \"display_name\": \"Rakesh Gopalakrishnan\", \"image_100x100\": \"https://img-b.udemycdn.com/user/100x100/9912714_deb0_2.jpg?secure=ZlaZkopxlDPffDA-C2BkTg%3D%3D%2C1644968093\", \"image_50x50\": \"https://img-b.udemycdn.com/user/50x50/9912714_deb0_2.jpg?secure=iOEVZ4rsk92LOv5c-Vb91A%3D%3D%2C1644968093\", \"initials\": \"RG\", \"job_title\": \"Over 600,000 Students\", \"name\": \"Rakesh\", \"title\": \"Rakesh Gopalakrishnan\", \"url\": \"/user/54a6020bb2e0e/\"}]}, {\"_class\": \"course\", \"curriculum_items\": [], \"curriculum_lectures\": [], \"headline\": \"7 steps you can use immediately to become more productive and master time management\", \"id\": 797156, \"image_125_H\": \"https://img-c.udemycdn.com/course/125_H/797156_d7dd_5.jpg\", \"image_240x135\": \"https://img-c.udemycdn.com/course/240x135/797156_d7dd_5.jpg\", \"image_480x270\": \"https://img-c.udemycdn.com/course/480x270/797156_d7dd_5.jpg\", \"input_features\": null, \"instructor_name\": null, \"is_paid\": false, \"is_practice_test_course\": false, \"lecture_search_result\": null, \"order_in_results\": null, \"predictive_score\": null, \"price\": \"Free\", \"price_detail\": null, \"price_serve_tracking_id\": \"nQS3O2lpSaWEVcnIkmivzw\", \"published_title\": \"manageyourtime\", \"relevancy_score\": null, \"title\": \"A Mini Course on Time Management\", \"tracking_id\": \"e6oqZEV0QqORf4LPic-wZw\", \"url\": \"/course/manageyourtime/\", \"visible_instructors\": [{\"_class\": \"user\", \"display_name\": \"Brandon Hakim\", \"image_100x100\": \"https://img-c.udemycdn.com/user/100x100/9304596_0ac3_7.jpg\", \"image_50x50\": \"https://img-c.udemycdn.com/user/50x50/9304596_0ac3_7.jpg\", \"initials\": \"BH\", \"job_title\": \"Founder of InsiderSchool.com\", \"name\": \"Brandon\", \"title\": \"Brandon Hakim\", \"url\": \"/user/brandonhakim/\"}, {\"_class\": \"user\", \"display_name\": \"Insider School\", \"image_100x100\": \"https://img-c.udemycdn.com/user/100x100/129334448_b32a_3.jpg\", \"image_50x50\": \"https://img-c.udemycdn.com/user/50x50/129334448_b32a_3.jpg\", \"initials\": \"IS\", \"job_title\": \"Change Your Life In 5 Minutes A Day\", \"name\": \"Insider\", \"title\": \"Insider School\", \"url\": \"/user/insider-school/\"}]}, {\"_class\": \"course\", \"curriculum_items\": [], \"curriculum_lectures\": [], \"headline\": \"Welcome to the Cloud... now, what is it?\", \"id\": 742114, \"image_125_H\": \"https://img-c.udemycdn.com/course/125_H/742114_9596_3.jpg\", \"image_240x135\": \"https://img-c.udemycdn.com/course/240x135/742114_9596_3.jpg\", \"image_480x270\": \"https://img-c.udemycdn.com/course/480x270/742114_9596_3.jpg\", \"input_features\": null, \"instructor_name\": null, \"is_paid\": false, \"is_practice_test_course\": false, \"lecture_search_result\": null, \"order_in_results\": null, \"predictive_score\": null, \"price\": \"Free\", \"price_detail\": null, \"price_serve_tracking_id\": \"2Uv7LLUbRcS_cUdqVHbS9A\", \"published_title\": \"introduction-to-cloud-computing\", \"relevancy_score\": null, \"title\": \"Introduction to Cloud Computing\", \"tracking_id\": \"26GQZMs9RJqnFt92BR-f4g\", \"url\": \"/course/introduction-to-cloud-computing/\", \"visible_instructors\": [{\"_class\": \"user\", \"display_name\": \"Xavier Corbett\", \"image_100x100\": \"https://img-b.udemycdn.com/user/100x100/anonymous_3.png?secure=jC4D1SMRkWltrI0WZAmbQg%3D%3D%2C1644963813\", \"image_50x50\": \"https://img-b.udemycdn.com/user/50x50/anonymous_3.png?secure=vbyIcSPXKXGnmtPXobhFeQ%3D%3D%2C1644963813\", \"initials\": \"XC\", \"job_title\": null, \"name\": \"Xavier\", \"title\": \"Xavier Corbett\", \"url\": \"/user/xaviercorbett/\"}]}, {\"_class\": \"course\", \"curriculum_items\": [], \"curriculum_lectures\": [], \"headline\": \"Ex-Wall Street Journal Editor Teaches How To Make Your Blogs, Books & Business Writing Sparkle\", \"id\": 171838, \"image_125_H\": \"https://img-c.udemycdn.com/course/125_H/171838_ae1b_4.jpg\", \"image_240x135\": \"https://img-c.udemycdn.com/course/240x135/171838_ae1b_4.jpg\", \"image_480x270\": \"https://img-c.udemycdn.com/course/480x270/171838_ae1b_4.jpg\", \"input_features\": null, \"instructor_name\": null, \"is_paid\": false, \"is_practice_test_course\": false, \"lecture_search_result\": null, \"order_in_results\": null, \"predictive_score\": null, \"price\": \"Free\", \"price_detail\": null, \"price_serve_tracking_id\": \"ZwLDp26qTui0Apb9XKt_SA\", \"published_title\": \"secret-sauce-of-great-writing\", \"relevancy_score\": null, \"title\": \"Secret Sauce of Great Writing\", \"tracking_id\": \"1dpDTmC6THKrMVSfedru6w\", \"url\": \"/course/secret-sauce-of-great-writing/\", \"visible_instructors\": [{\"_class\": \"user\", \"display_name\": \"Shani Raja\", \"image_100x100\": \"https://img-c.udemycdn.com/user/100x100/1681918_d7a1_7.jpg\", \"image_50x50\": \"https://img-c.udemycdn.com/user/50x50/1681918_d7a1_7.jpg\", \"initials\": \"SR\", \"job_title\": \"Ex-Wall Street Journal editor\", \"name\": \"Shani\", \"title\": \"Shani Raja\", \"url\": \"/user/shaniraja2/\"}]}, {\"_class\": \"course\", \"curriculum_items\": [], \"curriculum_lectures\": [], \"headline\": \"Learn to quickly connect with crowds of strangers, be better on dates or ace that job interview.\", \"id\": 780078, \"image_125_H\": \"https://img-c.udemycdn.com/course/125_H/780078_e409_2.jpg\", \"image_240x135\": \"https://img-c.udemycdn.com/course/240x135/780078_e409_2.jpg\", \"image_480x270\": \"https://img-c.udemycdn.com/course/480x270/780078_e409_2.jpg\", \"input_features\": null, \"instructor_name\": null, \"is_paid\": false, \"is_practice_test_course\": false, \"lecture_search_result\": null, \"order_in_results\": null, \"predictive_score\": null, \"price\": \"Free\", \"price_detail\": null, \"price_serve_tracking_id\": \"2c5HwXFnQdqVzLV4gRGEnQ\", \"published_title\": \"fearless-public-speaker-bootcamp-by-ricky-mendoza\", \"relevancy_score\": null, \"title\": \"How to speak to anyone & be fearless - in less than 55 min\", \"tracking_id\": \"qsSFsiDRQBSUKeVAB4a3Kw\", \"url\": \"/course/fearless-public-speaker-bootcamp-by-ricky-mendoza/\", \"visible_instructors\": [{\"_class\": \"user\", \"display_name\": \"Ricardo Mendoza\", \"image_100x100\": \"https://img-b.udemycdn.com/user/100x100/8678100_c955_2.jpg?secure=6oLmqrmRC1wunXrjdevTVw%3D%3D%2C1644990695\", \"image_50x50\": \"https://img-b.udemycdn.com/user/50x50/8678100_c955_2.jpg?secure=Xd-G-IOza5i8-ntct9yLBw%3D%3D%2C1644990695\", \"initials\": \"RM\", \"job_title\": \"Founder of Digital Work Studios and Interpretap\", \"name\": \"Ricardo\", \"title\": \"Ricardo Mendoza\", \"url\": \"/user/ricardomendoza9/\"}]}, {\"_class\": \"course\", \"curriculum_items\": [], \"curriculum_lectures\": [], \"headline\": \"Learn how Javascript works, some basic API's and finally create a mini project.\", \"id\": 707962, \"image_125_H\": \"https://img-c.udemycdn.com/course/125_H/707962_71f5_4.jpg\", \"image_240x135\": \"https://img-c.udemycdn.com/course/240x135/707962_71f5_4.jpg\", \"image_480x270\": \"https://img-c.udemycdn.com/course/480x270/707962_71f5_4.jpg\", \"input_features\": null, \"instructor_name\": null, \"is_paid\": false, \"is_practice_test_course\": false, \"lecture_search_result\": null, \"order_in_results\": null, \"predictive_score\": null, \"price\": \"Free\", \"price_detail\": null, \"price_serve_tracking_id\": \"L4RGP-84TRa3az5PXz9yUw\", \"published_title\": \"javascript-essentials\", \"relevancy_score\": null, \"title\": \"Javascript Essentials\", \"tracking_id\": \"KUIe97tLTQ2I91YRGFNZvw\", \"url\": \"/course/javascript-essentials/\", \"visible_instructors\": [{\"_class\": \"user\", \"display_name\": \"Lawrence Turton\", \"image_100x100\": \"https://img-c.udemycdn.com/user/100x100/3410094_40e1_4.jpg\", \"image_50x50\": \"https://img-c.udemycdn.com/user/50x50/3410094_40e1_4.jpg\", \"initials\": \"LT\", \"job_title\": \"Technical Instructor\", \"name\": \"Lawrence\", \"title\": \"Lawrence Turton\", \"url\": \"/user/lawrenceturton/\"}]}], \"search_tracking_id\": \"aumqd4FfRjGnn7vN3t5MGQ\"}"