"{\"count\":10000,\"next\":\"https://www.udemy.com/api-2.0/courses/?page=2&page_size=12&search=java\",\"previous\":null,\"results\":[{\"_class\":\"course\",\"id\":533682,\"title\":\"Java Programming Masterclass covering Java 11 & Java 17\",\"url\":\"/course/java-the-complete-java-developer-course/\",\"is_paid\":true,\"price\":\"$84.99\",\"price_detail\":{\"amount\":84.99,\"currency\":\"USD\",\"price_string\":\"$84.99\",\"currency_symbol\":\"$\"},\"price_serve_tracking_id\":\"K8kDrLA0SZOb6PKi8wHGoA\",\"visible_instructors\":[{\"_class\":\"user\",\"title\":\"Tim Buchalka\",\"name\":\"Tim\",\"display_name\":\"Tim Buchalka\",\"job_title\":\"Java Python Android and C# Expert Developer - 1M+ students\",\"image_50x50\":\"https://img-c.udemycdn.com/user/50x50/599932_71aa_5.jpg\",\"image_100x100\":\"https://img-c.udemycdn.com/user/100x100/599932_71aa_5.jpg\",\"initials\":\"TB\",\"url\":\"/user/timbuchalka/\"},{\"_class\":\"user\",\"title\":\"Tim Buchalka's Learn Programming Academy\",\"name\":\"Tim Buchalka's Learn\",\"display_name\":\"Tim Buchalka's Learn Programming Academy\",\"job_title\":\"Professional Programmers and Teachers - 1.24M students\",\"image_50x50\":\"https://img-c.udemycdn.com/user/50x50/35101150_6f0c_4.jpg\",\"image_100x100\":\"https://img-c.udemycdn.com/user/100x100/35101150_6f0c_4.jpg\",\"initials\":\"TP\",\"url\":\"/user/learn-programming-academy/\"}],\"image_125_H\":\"https://img-c.udemycdn.com/course/125_H/533682_c10c_4.jpg\",\"image_240x135\":\"https://img-c.udemycdn.com/course/240x135/533682_c10c_4.jpg\",\"is_practice_test_course\":false,\"image_480x270\":\"https://img-c.udemycdn.com/course/480x270/533682_c10c_4.jpg\",\"published_title\":\"java-the-complete-java-developer-course\",\"tracking_id\":\"LZ9Pz_mJQB-3S8dPHZVoOg\",\"predictive_score\":null,\"relevancy_score\":null,\"input_features\":null,\"lecture_search_result\":null,\"curriculum_lectures\":[],\"order_in_results\":null,\"curriculum_items\":[],\"headline\":\"Learn Java In This Course And Become a Computer Programmer. Obtain valuable Core Java Skills And Java Certification\",\"instructor_name\":null},{\"_class\":\"course\",\"id\":1535678,\"title\":\"Java Programming for Complete Beginners\",\"url\":\"/course/java-programming-tutorial-for-beginners/\",\"is_paid\":true,\"price\":\"$129.99\",\"price_detail\":{\"amount\":129.99,\"currency\":\"USD\",\"price_string\":\"$129.99\",\"currency_symbol\":\"$\"},\"price_serve_tracking_id\":\"LcLPO51jSMa6HNy0ZI5wVg\",\"visible_instructors\":[{\"_class\":\"user\",\"title\":\"in28Minutes Official\",\"name\":\"in28Minutes\",\"display_name\":\"in28Minutes Official\",\"job_title\":\"DevOps, Azure, GCP, Docker, Kubernetes, Java & Spring Boot\",\"image_50x50\":\"https://img-c.udemycdn.com/user/50x50/13363166_a747.jpg\",\"image_100x100\":\"https://img-c.udemycdn.com/user/100x100/13363166_a747.jpg\",\"initials\":\"IO\",\"url\":\"/user/in28minutes/\"}],\"image_125_H\":\"https://img-c.udemycdn.com/course/125_H/1535678_0ce9_7.jpg\",\"image_240x135\":\"https://img-c.udemycdn.com/course/240x135/1535678_0ce9_7.jpg\",\"is_practice_test_course\":false,\"image_480x270\":\"https://img-c.udemycdn.com/course/480x270/1535678_0ce9_7.jpg\",\"published_title\":\"java-programming-tutorial-for-beginners\",\"tracking_id\":\"6SM9jywBQ-m-Gg2UGWdnWg\",\"predictive_score\":null,\"relevancy_score\":null,\"input_features\":null,\"lecture_search_result\":null,\"curriculum_lectures\":[],\"order_in_results\":null,\"curriculum_items\":[],\"headline\":\"Java Programming Course for Beginners to Java Object Oriented Programming. BONUS: Build REST API with Spring Boot.\",\"instructor_name\":null},{\"_class\":\"course\",\"id\":358540,\"title\":\"Java In-Depth: Become a Complete Java Engineer!\",\"url\":\"/course/java-in-depth-become-a-complete-java-engineer/\",\"is_paid\":true,\"price\":\"$89.99\",\"price_detail\":{\"amount\":89.99,\"currency\":\"USD\",\"price_string\":\"$89.99\",\"currency_symbol\":\"$\"},\"price_serve_tracking_id\":\"u-bnI5RuRt6r6EG_cB_g4g\",\"visible_instructors\":[{\"_class\":\"user\",\"title\":\"Dheeru Mundluru\",\"name\":\"Dheeru\",\"display_name\":\"Dheeru Mundluru\",\"job_title\":\"PhD, CTO & Principal Instructor at Semantic Square\",\"image_50x50\":\"https://img-c.udemycdn.com/user/50x50/9164404_c05c_4.jpg\",\"image_100x100\":\"https://img-c.udemycdn.com/user/100x100/9164404_c05c_4.jpg\",\"initials\":\"DM\",\"url\":\"/user/dheerumundluru2/\"}],\"image_125_H\":\"https://img-c.udemycdn.com/course/125_H/358540_d06b_11.jpg\",\"image_240x135\":\"https://img-c.udemycdn.com/course/240x135/358540_d06b_11.jpg\",\"is_practice_test_course\":false,\"image_480x270\":\"https://img-c.udemycdn.com/course/480x270/358540_d06b_11.jpg\",\"published_title\":\"java-in-depth-become-a-complete-java-engineer\",\"tracking_id\":\"30H9ONyoRlO9c-W6utRq_A\",\"predictive_score\":null,\"relevancy_score\":null,\"input_features\":null,\"lecture_search_result\":null,\"curriculum_lectures\":[],\"order_in_results\":null,\"curriculum_items\":[],\"headline\":\"Comprehensive Java programming course integrated with design principles, best practices & instructor-led Java EE project\",\"instructor_name\":null},{\"_class\":\"course\",\"id\":3740582,\"title\":\"The Complete Java Development Bootcamp\",\"url\":\"/course/the-complete-java-development-bootcamp/\",\"is_paid\":true,\"price\":\"$84.99\",\"price_detail\":{\"amount\":84.99,\"currency\":\"USD\",\"price_string\":\"$84.99\",\"currency_symbol\":\"$\"},\"price_serve_tracking_id\":\"AazcegIoTeeF3Pncw-HTRQ\",\"visible_instructors\":[{\"_class\":\"user\",\"title\":\"Learn The Part Inc.\",\"name\":\"Learn The Part\",\"display_name\":\"Learn The Part Inc.\",\"job_title\":\"Exceptional courses taught by expert instructors\",\"image_50x50\":\"https://img-c.udemycdn.com/user/50x50/146003318_e1ac.jpg\",\"image_100x100\":\"https://img-c.udemycdn.com/user/100x100/146003318_e1ac.jpg\",\"initials\":\"LI\",\"url\":\"/user/learn-the-part/\"},{\"_class\":\"user\",\"title\":\"Rayan Slim\",\"name\":\"Rayan\",\"display_name\":\"Rayan Slim\",\"job_title\":\"Developer\",\"image_50x50\":\"https://img-c.udemycdn.com/user/50x50/23181556_6c36_5.jpg\",\"image_100x100\":\"https://img-c.udemycdn.com/user/100x100/23181556_6c36_5.jpg\",\"initials\":\"RS\",\"url\":\"/user/rayan-slim/\"},{\"_class\":\"user\",\"title\":\"Jad Slim\",\"name\":\"Jad\",\"display_name\":\"Jad Slim\",\"job_title\":\"Developer\",\"image_50x50\":\"https://img-c.udemycdn.com/user/50x50/8552108_cb6f_2.jpg\",\"image_100x100\":\"https://img-c.udemycdn.com/user/100x100/8552108_cb6f_2.jpg\",\"initials\":\"JS\",\"url\":\"/user/jadslim/\"},{\"_class\":\"user\",\"title\":\"Jose Portilla\",\"name\":\"Jose\",\"display_name\":\"Jose Portilla\",\"job_title\":\"Head of Data Science, Pierian Data Inc.\",\"image_50x50\":\"https://img-c.udemycdn.com/user/50x50/9685726_67e7_4.jpg\",\"image_100x100\":\"https://img-c.udemycdn.com/user/100x100/9685726_67e7_4.jpg\",\"initials\":\"JP\",\"url\":\"/user/joseportilla/\"}],\"image_125_H\":\"https://img-c.udemycdn.com/course/125_H/3740582_cc2c_7.jpg\",\"image_240x135\":\"https://img-c.udemycdn.com/course/240x135/3740582_cc2c_7.jpg\",\"is_practice_test_course\":false,\"image_480x270\":\"https://img-c.udemycdn.com/course/480x270/3740582_cc2c_7.jpg\",\"published_title\":\"the-complete-java-development-bootcamp\",\"tracking_id\":\"MM1Qis0ZT2y75Ml6V-E8Aw\",\"predictive_score\":null,\"relevancy_score\":null,\"input_features\":null,\"lecture_search_result\":null,\"curriculum_lectures\":[],\"order_in_results\":null,\"curriculum_items\":[],\"headline\":\"Become an Experienced Java Developer with Just One Course. Fully Updated with 100+ Coding Challenges!\",\"instructor_name\":null},{\"_class\":\"course\",\"id\":354176,\"title\":\"Selenium WebDriver with Java -Basics to Advanced+Frameworks\",\"url\":\"/course/selenium-real-time-examplesinterview-questions/\",\"is_paid\":true,\"price\":\"$89.99\",\"price_detail\":{\"amount\":89.99,\"currency\":\"USD\",\"price_string\":\"$89.99\",\"currency_symbol\":\"$\"},\"price_serve_tracking_id\":\"J_pdHQ-4Saae1sdnwInX8g\",\"visible_instructors\":[{\"_class\":\"user\",\"title\":\"Rahul Shetty\",\"name\":\"Rahul\",\"display_name\":\"Rahul Shetty\",\"job_title\":\"Founder of RahulShettyAcademy.com|350k+ QA Students\",\"image_50x50\":\"https://img-c.udemycdn.com/user/50x50/5997742_a60f_51.jpg\",\"image_100x100\":\"https://img-c.udemycdn.com/user/100x100/5997742_a60f_51.jpg\",\"initials\":\"RS\",\"url\":\"/user/rahul445/\"}],\"image_125_H\":\"https://img-c.udemycdn.com/course/125_H/354176_fe73_5.jpg\",\"image_240x135\":\"https://img-c.udemycdn.com/course/240x135/354176_fe73_5.jpg\",\"is_practice_test_course\":false,\"image_480x270\":\"https://img-c.udemycdn.com/course/480x270/354176_fe73_5.jpg\",\"published_title\":\"selenium-real-time-examplesinterview-questions\",\"tracking_id\":\"GiOZjWWoS_WyWjAggMl9bQ\",\"predictive_score\":null,\"relevancy_score\":null,\"input_features\":null,\"lecture_search_result\":null,\"curriculum_lectures\":[],\"order_in_results\":null,\"curriculum_items\":[],\"headline\":\"\\\"TOP RATED (BEST SELLER) #1 Master SELENIUM java course\\\" -5 Million students learning worldWide with great collaboration\",\"instructor_name\":null},{\"_class\":\"course\",\"id\":827692,\"title\":\"The Complete Java Certification Course\",\"url\":\"/course/master-practical-java-development/\",\"is_paid\":true,\"price\":\"$84.99\",\"price_detail\":{\"amount\":84.99,\"currency\":\"USD\",\"price_string\":\"$84.99\",\"currency_symbol\":\"$\"},\"price_serve_tracking_id\":\"Tjqh7eJjRY60ds_uyySu7A\",\"visible_instructors\":[{\"_class\":\"user\",\"title\":\"Imtiaz Ahmad\",\"name\":\"Imtiaz\",\"display_name\":\"Imtiaz Ahmad\",\"job_title\":\"Senior Software Engineer & Trainer @ Job Ready Programmer\",\"image_50x50\":\"https://img-c.udemycdn.com/user/50x50/7315098_7c17_3.jpg\",\"image_100x100\":\"https://img-c.udemycdn.com/user/100x100/7315098_7c17_3.jpg\",\"initials\":\"IA\",\"url\":\"/user/imtiazahmad4/\"}],\"image_125_H\":\"https://img-c.udemycdn.com/course/125_H/827692_91ad_2.jpg\",\"image_240x135\":\"https://img-c.udemycdn.com/course/240x135/827692_91ad_2.jpg\",\"is_practice_test_course\":false,\"image_480x270\":\"https://img-c.udemycdn.com/course/480x270/827692_91ad_2.jpg\",\"published_title\":\"master-practical-java-development\",\"tracking_id\":\"ChYgIpH2QlOdHBkH4h5ZwA\",\"predictive_score\":null,\"relevancy_score\":null,\"input_features\":null,\"lecture_search_result\":null,\"curriculum_lectures\":[],\"order_in_results\":null,\"curriculum_items\":[],\"headline\":\"Become a confident industry ready core Java developer and get certified as a Java professional!\",\"instructor_name\":null},{\"_class\":\"course\",\"id\":911256,\"title\":\"Core Java Made Easy (Covers the latest Java 16)\",\"url\":\"/course/corejavamadeeasy/\",\"is_paid\":true,\"price\":\"$39.99\",\"price_detail\":{\"amount\":39.99,\"currency\":\"USD\",\"price_string\":\"$39.99\",\"currency_symbol\":\"$\"},\"price_serve_tracking_id\":\"YOP_yYOCTByPbPcY3etjrQ\",\"visible_instructors\":[{\"_class\":\"user\",\"title\":\"Bharath Thippireddy\",\"name\":\"Bharath\",\"display_name\":\"Bharath Thippireddy\",\"job_title\":\"IT Architect and Best Selling Instructor- 450000+ students\",\"image_50x50\":\"https://img-c.udemycdn.com/user/50x50/8735380_e11b_4.jpg\",\"image_100x100\":\"https://img-c.udemycdn.com/user/100x100/8735380_e11b_4.jpg\",\"initials\":\"BT\",\"url\":\"/user/bharaththippireddy/\"}],\"image_125_H\":\"https://img-c.udemycdn.com/course/125_H/911256_4d20_5.jpg\",\"image_240x135\":\"https://img-c.udemycdn.com/course/240x135/911256_4d20_5.jpg\",\"is_practice_test_course\":false,\"image_480x270\":\"https://img-c.udemycdn.com/course/480x270/911256_4d20_5.jpg\",\"published_title\":\"corejavamadeeasy\",\"tracking_id\":\"kioOQEqgREirng_-YrT-gw\",\"predictive_score\":null,\"relevancy_score\":null,\"input_features\":null,\"lecture_search_result\":null,\"curriculum_lectures\":[],\"order_in_results\":null,\"curriculum_items\":[],\"headline\":\"Master java in quick and simple steps\",\"instructor_name\":null},{\"_class\":\"course\",\"id\":2707184,\"title\":\"Java Programming: Complete Beginner to Advanced\",\"url\":\"/course/java-programming-complete-beginner-to-advanced/\",\"is_paid\":true,\"price\":\"$89.99\",\"price_detail\":{\"amount\":89.99,\"currency\":\"USD\",\"price_string\":\"$89.99\",\"currency_symbol\":\"$\"},\"price_serve_tracking_id\":\"bwDg2wPwRTqGcwCzkP_a2w\",\"visible_instructors\":[{\"_class\":\"user\",\"title\":\"CodeIn Academy\",\"name\":\"CodeIn\",\"display_name\":\"CodeIn Academy\",\"job_title\":\"Certified Java Software Engineers\",\"image_50x50\":\"https://img-c.udemycdn.com/user/50x50/97332300_0f28_3.jpg\",\"image_100x100\":\"https://img-c.udemycdn.com/user/100x100/97332300_0f28_3.jpg\",\"initials\":\"CA\",\"url\":\"/user/codein-academy/\"}],\"image_125_H\":\"https://img-c.udemycdn.com/course/125_H/2707184_4c5e.jpg\",\"image_240x135\":\"https://img-c.udemycdn.com/course/240x135/2707184_4c5e.jpg\",\"is_practice_test_course\":false,\"image_480x270\":\"https://img-c.udemycdn.com/course/480x270/2707184_4c5e.jpg\",\"published_title\":\"java-programming-complete-beginner-to-advanced\",\"tracking_id\":\"GywOo62tR8Cv30GpMxg91Q\",\"predictive_score\":null,\"relevancy_score\":null,\"input_features\":null,\"lecture_search_result\":null,\"curriculum_lectures\":[],\"order_in_results\":null,\"curriculum_items\":[],\"headline\":\"Become a Computer Programmer by Learning Core Java Skills\",\"instructor_name\":null},{\"_class\":\"course\",\"id\":2462140,\"title\":\"Learn JAVA Programming - Beginner to Master\",\"url\":\"/course/java-se-programming/\",\"is_paid\":true,\"price\":\"$89.99\",\"price_detail\":{\"amount\":89.99,\"currency\":\"USD\",\"price_string\":\"$89.99\",\"currency_symbol\":\"$\"},\"price_serve_tracking_id\":\"D3JUJyL-ROSnAzV5_lSNOQ\",\"visible_instructors\":[{\"_class\":\"user\",\"title\":\"Abdul Bari\",\"name\":\"Abdul\",\"display_name\":\"Abdul Bari\",\"job_title\":\"Professional Programmer and Educator\",\"image_50x50\":\"https://img-c.udemycdn.com/user/50x50/27878376_ce40_3.jpg\",\"image_100x100\":\"https://img-c.udemycdn.com/user/100x100/27878376_ce40_3.jpg\",\"initials\":\"AB\",\"url\":\"/user/mohammed-abdul-bari-2/\"}],\"image_125_H\":\"https://img-c.udemycdn.com/course/125_H/2462140_b27f_2.jpg\",\"image_240x135\":\"https://img-c.udemycdn.com/course/240x135/2462140_b27f_2.jpg\",\"is_practice_test_course\":false,\"image_480x270\":\"https://img-c.udemycdn.com/course/480x270/2462140_b27f_2.jpg\",\"published_title\":\"java-se-programming\",\"tracking_id\":\"pJ03miERRBmNaT7zvZuw9A\",\"predictive_score\":null,\"relevancy_score\":null,\"input_features\":null,\"lecture_search_result\":null,\"curriculum_lectures\":[],\"order_in_results\":null,\"curriculum_items\":[],\"headline\":\"Deep Dive in Core Java programming -Standard Edition. A Practical approach to learn Java. Become a Java Expert\",\"instructor_name\":null},{\"_class\":\"course\",\"id\":2691654,\"title\":\"Java from Zero to First Job - Practical Guide, 800+ examples\",\"url\":\"/course/java-development-for-beginners-learnit/\",\"is_paid\":true,\"price\":\"$84.99\",\"price_detail\":{\"amount\":84.99,\"currency\":\"USD\",\"price_string\":\"$84.99\",\"currency_symbol\":\"$\"},\"price_serve_tracking_id\":\"HZzbfpakRWupSbGSoxD6Og\",\"visible_instructors\":[{\"_class\":\"user\",\"title\":\"Andrii Piatakha\",\"name\":\"Andrii\",\"display_name\":\"Andrii Piatakha\",\"job_title\":\"Founder and CEO in IT-Bulls, Founder of Learn-IT University\",\"image_50x50\":\"https://img-c.udemycdn.com/user/50x50/84635850_a6a6_2.jpg\",\"image_100x100\":\"https://img-c.udemycdn.com/user/100x100/84635850_a6a6_2.jpg\",\"initials\":\"AP\",\"url\":\"/user/andrii-piatakha/\"},{\"_class\":\"user\",\"title\":\"Learn IT University\",\"name\":\"Learn IT\",\"display_name\":\"Learn IT University\",\"job_title\":\"The Best Programming Courses\",\"image_50x50\":\"https://img-c.udemycdn.com/user/50x50/146611910_2963.jpg\",\"image_100x100\":\"https://img-c.udemycdn.com/user/100x100/146611910_2963.jpg\",\"initials\":\"LU\",\"url\":\"/user/learn-it-university/\"},{\"_class\":\"user\",\"title\":\"Tigran Ter-Karapetyants\",\"name\":\"Tigran\",\"display_name\":\"Tigran Ter-Karapetyants\",\"job_title\":\"Lead Test Automation Engineer, 300K+ students\",\"image_50x50\":\"https://img-c.udemycdn.com/user/50x50/129812108_30b7.jpg\",\"image_100x100\":\"https://img-c.udemycdn.com/user/100x100/129812108_30b7.jpg\",\"initials\":\"TT\",\"url\":\"/user/tigran-136/\"}],\"image_125_H\":\"https://img-c.udemycdn.com/course/125_H/2691654_2f52_3.jpg\",\"image_240x135\":\"https://img-c.udemycdn.com/course/240x135/2691654_2f52_3.jpg\",\"is_practice_test_course\":false,\"image_480x270\":\"https://img-c.udemycdn.com/course/480x270/2691654_2f52_3.jpg\",\"published_title\":\"java-development-for-beginners-learnit\",\"tracking_id\":\"4MoTXdXnTXOEprgrcPV8FA\",\"predictive_score\":null,\"relevancy_score\":null,\"input_features\":null,\"lecture_search_result\":null,\"curriculum_lectures\":[],\"order_in_results\":null,\"curriculum_items\":[],\"headline\":\"Learn Java from scratch and become Java Software Engineer: Basics, OOP, Interview questions, Git, Java Collections etc\",\"instructor_name\":null},{\"_class\":\"course\",\"id\":1453872,\"title\":\"Java 8 New Features In Simple Way\",\"url\":\"/course/java-8-new-features-in-simple-way/\",\"is_paid\":true,\"price\":\"$49.99\",\"price_detail\":{\"amount\":49.99,\"currency\":\"USD\",\"price_string\":\"$49.99\",\"currency_symbol\":\"$\"},\"price_serve_tracking_id\":\"gJQlb6UYSDaCgR_Cc7noCg\",\"visible_instructors\":[{\"_class\":\"user\",\"title\":\"DURGASOFT DURGA\",\"name\":\"DURGASOFT\",\"display_name\":\"DURGASOFT DURGA\",\"job_title\":\"Trainer at DURGASOFT\",\"image_50x50\":\"https://img-c.udemycdn.com/user/50x50/40194854_0ccf.jpg\",\"image_100x100\":\"https://img-c.udemycdn.com/user/100x100/40194854_0ccf.jpg\",\"initials\":\"DD\",\"url\":\"/user/durgasoft-2/\"}],\"image_125_H\":\"https://img-c.udemycdn.com/course/125_H/1453872_c076_3.jpg\",\"image_240x135\":\"https://img-c.udemycdn.com/course/240x135/1453872_c076_3.jpg\",\"is_practice_test_course\":false,\"image_480x270\":\"https://img-c.udemycdn.com/course/480x270/1453872_c076_3.jpg\",\"published_title\":\"java-8-new-features-in-simple-way\",\"tracking_id\":\"weq_v2ZxTqGmmozlbBoS4w\",\"predictive_score\":null,\"relevancy_score\":null,\"input_features\":null,\"lecture_search_result\":null,\"curriculum_lectures\":[],\"order_in_results\":null,\"curriculum_items\":[],\"headline\":\"Direct Class Room Videos To give Left and Right Anywhere about Lambda Expressions,Streams and More\",\"instructor_name\":null},{\"_class\":\"course\",\"id\":1993718,\"title\":\"Full Stack Java developer - Java + JSP + Restful WS + Spring\",\"url\":\"/course/full-stack-java-developer-java/\",\"is_paid\":true,\"price\":\"$84.99\",\"price_detail\":{\"amount\":84.99,\"currency\":\"USD\",\"price_string\":\"$84.99\",\"currency_symbol\":\"$\"},\"price_serve_tracking_id\":\"6krBFr7cTTOYQrdsrrqkgA\",\"visible_instructors\":[{\"_class\":\"user\",\"title\":\"StudyEasy Organisation\",\"name\":\"StudyEasy\",\"display_name\":\"StudyEasy Organisation\",\"job_title\":\"Fantastic content maker and fabulous presenters\",\"image_50x50\":\"https://img-c.udemycdn.com/user/50x50/15843944_2e5c_7.jpg\",\"image_100x100\":\"https://img-c.udemycdn.com/user/100x100/15843944_2e5c_7.jpg\",\"initials\":\"SO\",\"url\":\"/user/studyeasy/\"},{\"_class\":\"user\",\"title\":\"Chaand Sheikh\",\"name\":\"Chaand\",\"display_name\":\"Chaand Sheikh\",\"job_title\":\"Best seller Instructor, Teaches more than 1,50,000+ students\",\"image_50x50\":\"https://img-c.udemycdn.com/user/50x50/23464438_e7fb_5.jpg\",\"image_100x100\":\"https://img-c.udemycdn.com/user/100x100/23464438_e7fb_5.jpg\",\"initials\":\"CS\",\"url\":\"/user/chaand-sheikh/\"}],\"image_125_H\":\"https://img-c.udemycdn.com/course/125_H/1993718_b47a_3.jpg\",\"image_240x135\":\"https://img-c.udemycdn.com/course/240x135/1993718_b47a_3.jpg\",\"is_practice_test_course\":false,\"image_480x270\":\"https://img-c.udemycdn.com/course/480x270/1993718_b47a_3.jpg\",\"published_title\":\"full-stack-java-developer-java\",\"tracking_id\":\"HGmJFAEgQAShb-jnsC_X-A\",\"predictive_score\":null,\"relevancy_score\":null,\"input_features\":null,\"lecture_search_result\":null,\"curriculum_lectures\":[],\"order_in_results\":null,\"curriculum_items\":[],\"headline\":\"Full Stack Java developer - Core Java + JSP Servlets + Hibernate +Spring + Java Web-service/RestFul  API + Spring boot.\",\"instructor_name\":null}],\"aggregations\":[{\"id\":\"price\",\"title\":\"Price\",\"options\":[{\"key\":\"price\",\"title\":\"Paid\",\"count\":10000,\"value\":\"price-paid\"},{\"key\":\"price\",\"title\":\"Free\",\"count\":6554,\"value\":\"price-free\"}]},{\"id\":\"instructional_level\",\"title\":\"Level\",\"options\":[{\"key\":\"instructional_level\",\"title\":\"All Levels\",\"count\":8197,\"value\":\"all\"},{\"key\":\"instructional_level\",\"title\":\"Beginner\",\"count\":7758,\"value\":\"beginner\"},{\"key\":\"instructional_level\",\"title\":\"Intermediate\",\"count\":2532,\"value\":\"intermediate\"},{\"key\":\"instructional_level\",\"title\":\"Expert\",\"count\":351,\"value\":\"expert\"}]},{\"id\":\"features\",\"title\":\"Features\",\"options\":[{\"key\":\"has_closed_caption\",\"title\":\"Captions\",\"count\":10000,\"value\":\"true\"},{\"key\":\"has_simple_quiz\",\"title\":\"Quizzes\",\"count\":3803,\"value\":\"true\"},{\"key\":\"has_coding_exercises\",\"title\":\"Coding Exercises\",\"count\":380,\"value\":\"true\"}]},{\"id\":\"language\",\"title\":\"Language\",\"options\":[{\"key\":\"language\",\"title\":\"English\",\"count\":10000,\"value\":\"en\"},{\"key\":\"language\",\"title\":\"Espa\u00f1ol\",\"count\":1411,\"value\":\"es\"},{\"key\":\"language\",\"title\":\"Portugu\u00eas\",\"count\":1020,\"value\":\"pt\"},{\"key\":\"language\",\"title\":\"T\u00fcrk\u00e7e\",\"count\":411,\"value\":\"tr\"},{\"key\":\"language\",\"title\":\"Deutsch\",\"count\":319,\"value\":\"de\"},{\"key\":\"language\",\"title\":\"\u0420\u0443\u0441\u0441\u043a\u0438\u0439\",\"count\":314,\"value\":\"ru\"},{\"key\":\"language\",\"title\":\"Fran\u00e7ais\",\"count\":259,\"value\":\"fr\"},{\"key\":\"language\",\"title\":\"\u0627\u0644\u0639\u0631\u0628\u064a\u0629\",\"count\":242,\"value\":\"ar\"},{\"key\":\"language\",\"title\":\"\u65e5\u672c\u8a9e\",\"count\":236,\"value\":\"ja\"},{\"key\":\"language\",\"title\":\"Polski\",\"count\":222,\"value\":\"pl\"},{\"key\":\"language\",\"title\":\"\u4e2d\u6587\",\"count\":221,\"value\":\"zh\"},{\"key\":\"language\",\"title\":\"Italiano\",\"count\":166,\"value\":\"it\"},{\"key\":\"language\",\"title\":\"\ud55c\uad6d\uc5b4\",\"count\":165,\"value\":\"ko\"},{\"key\":\"language\",\"title\":\"\u0939\u093f\u0928\u094d\u0926\u0940\",\"count\":162,\"value\":\"hi\"},{\"key\":\"language\",\"title\":\"Bahasa Indonesia\",\"count\":139,\"value\":\"id\"},{\"key\":\"language\",\"title\":\"\u0ba4\u0bae\u0bbf\u0bb4\u0bcd\",\"count\":95,\"value\":\"ta\"},{\"key\":\"language\",\"title\":\"Ti\u1ebfng Vi\u1ec7t\",\"count\":83,\"value\":\"vi\"},{\"key\":\"language\",\"title\":\"Telugu\",\"count\":53,\"value\":\"te\"},{\"key\":\"language\",\"title\":\"Rom\u00e2n\u0103\",\"count\":51,\"value\":\"ro\"},{\"key\":\"language\",\"title\":\"\u0e20\u0e32\u0e29\u0e32\u0e44\u0e17\u0e22\",\"count\":37,\"value\":\"th\"},{\"key\":\"language\",\"title\":\"Az\u0259rbaycan dili\",\"count\":33,\"value\":\"az\"},{\"key\":\"language\",\"title\":\"\u0627\u0631\u062f\u0648\",\"count\":32,\"value\":\"ur\"},{\"key\":\"language\",\"title\":\"Magyar\",\"count\":25,\"value\":\"hu\"},{\"key\":\"language\",\"title\":\"Malay\u0101\u1e37am\",\"count\":24,\"value\":\"ml\"},{\"key\":\"language\",\"title\":\"\u092e\u0930\u093e\u0920\u0940\",\"count\":23,\"value\":\"mr\"},{\"key\":\"language\",\"title\":\"\u200f\u05e2\u05d1\u05e8\u05d9\u05ea\u200f\",\"count\":21,\"value\":\"he\"},{\"key\":\"language\",\"title\":\"Nederlands\",\"count\":17,\"value\":\"nl\"},{\"key\":\"language\",\"title\":\"\u0641\u0627\u0631\u0633\u06cc\",\"count\":14,\"value\":\"fa\"},{\"key\":\"language\",\"title\":\"\u0395\u03bb\u03bb\u03b7\u03bd\u03b9\u03ba\u03ac\",\"count\":12,\"value\":\"el\"},{\"key\":\"language\",\"title\":\"\u0a97\u0ac1\u0a9c\u0ab0\u0abe\u0aa4\u0ac0\",\"count\":9,\"value\":\"gu\"},{\"key\":\"language\",\"title\":\"Bangla\",\"count\":7,\"value\":\"bn\"},{\"key\":\"language\",\"title\":\"\u0423\u043a\u0440\u0430\u0457\u043d\u0441\u044c\u043a\u0430\",\"count\":6,\"value\":\"uk\"},{\"key\":\"language\",\"title\":\"Hrvatski\",\"count\":5,\"value\":\"hr\"},{\"key\":\"language\",\"title\":\"Afrikaans\",\"count\":4,\"value\":\"af\"},{\"key\":\"language\",\"title\":\"Svenska\",\"count\":4,\"value\":\"sv\"},{\"key\":\"language\",\"title\":\"Kanna\u1e0da\",\"count\":3,\"value\":\"kn\"},{\"key\":\"language\",\"title\":\"Shqip\",\"count\":3,\"value\":\"sq\"},{\"key\":\"language\",\"title\":\"\u0421\u0440\u043f\u0441\u043a\u0438\",\"count\":3,\"value\":\"sr\"},{\"key\":\"language\",\"title\":\"\u0411\u044a\u043b\u0433\u0430\u0440\u0441\u043a\u0438\",\"count\":2,\"value\":\"bg\"},{\"key\":\"language\",\"title\":\"\u010ce\u0161tina\",\"count\":2,\"value\":\"cs\"},{\"key\":\"language\",\"title\":\"Lietuvi\u0173\",\"count\":2,\"value\":\"lt\"},{\"key\":\"language\",\"title\":\"\u067e\u069a\u062a\u0648\",\"count\":2,\"value\":\"ps\"},{\"key\":\"language\",\"title\":\"Soomaaliga\",\"count\":2,\"value\":\"so\"},{\"key\":\"language\",\"title\":\"O'zbek\",\"count\":2,\"value\":\"uz\"},{\"key\":\"language\",\"title\":\"Catal\u00e0\",\"count\":1,\"value\":\"ca\"},{\"key\":\"language\",\"title\":\"Dansk\",\"count\":1,\"value\":\"da\"},{\"key\":\"language\",\"title\":\"\u10e5\u10d0\u10e0\u10d7\u10e3\u10da\u10d8\",\"count\":1,\"value\":\"ka\"},{\"key\":\"language\",\"title\":\"\u041c\u043e\u043d\u0433\u043e\u043b\",\"count\":1,\"value\":\"mn\"},{\"key\":\"language\",\"title\":\"\u1019\u103c\u1014\u103a\u1019\u102c\u1018\u102c\u101e\u102c\",\"count\":1,\"value\":\"my\"},{\"key\":\"language\",\"title\":\"\u0928\u0947\u092a\u093e\u0932\u0940\",\"count\":1,\"value\":\"ne\"},{\"key\":\"language\",\"title\":\"Sloven\u010dina\",\"count\":1,\"value\":\"sk\"},{\"key\":\"language\",\"title\":\"Filipino\",\"count\":1,\"value\":\"tl\"},{\"key\":\"language\",\"title\":\"isiXhosa\",\"count\":1,\"value\":\"xh\"}]},{\"id\":\"ratings\",\"title\":\"Ratings\",\"options\":[{\"key\":\"ratings\",\"title\":\"4.5 & up\",\"count\":6590,\"value\":\"4.5\"},{\"key\":\"ratings\",\"title\":\"4.0 & up\",\"count\":10000,\"value\":\"4.0\"},{\"key\":\"ratings\",\"title\":\"3.5 & up\",\"count\":10000,\"value\":\"3.5\"},{\"key\":\"ratings\",\"title\":\"3.0 & up\",\"count\":10000,\"value\":\"3.0\"}]},{\"id\":\"duration\",\"title\":\"Duration\",\"options\":[{\"key\":\"duration\",\"title\":\"0-1 Hour\",\"count\":4599,\"value\":\"extraShort\"},{\"key\":\"duration\",\"title\":\"1-3 Hours\",\"count\":6702,\"value\":\"short\"},{\"key\":\"duration\",\"title\":\"3-6 Hours\",\"count\":3146,\"value\":\"medium\"},{\"key\":\"duration\",\"title\":\"6-17 Hours\",\"count\":3133,\"value\":\"long\"},{\"key\":\"duration\",\"title\":\"17+ Hours\",\"count\":1259,\"value\":\"extraLong\"}]}],\"search_tracking_id\":\"nKK6khVZQ0WngqpR7ga9Fw\"}"